{
    "Decks": [
        {
            "UniqueId": "Standard",
            "Value": "S",
            "Name": "Standard",
            "ImagePath": "Assets/standard.dark.png",
            "Cards": [
                {
                    "Id": "S1",
                    "Value": "0",
                    "ImagePath": ""
                },
                {
                    "Id": "S2",
                    "Value": "1/2",
                    "ImagePath": ""
                },
                {
                    "Id": "S3",
                    "Value": "1",
                    "ImagePath": ""
                },
                {
                    "Id": "S4",
                    "Value": "2",
                    "ImagePath": ""
                },
                {
                    "Id": "S5",
                    "Value": "3",
                    "ImagePath": ""
                },
                {
                    "Id": "S6",
                    "Value": "5",
                    "ImagePath": ""
                },
                {
                    "Id": "S7",
                    "Value": "8",
                    "ImagePath": ""
                },
                {
                    "Id": "S8",
                    "Value": "13",
                    "ImagePath": ""
                },
                {
                    "Id": "S9",
                    "Value": "20",
                    "ImagePath": ""
                },
                {
                    "Id": "S10",
                    "Value": "40",
                    "ImagePath": ""
                },
                {
                    "Id": "S11",
                    "Value": "100",
                    "ImagePath": ""
                },
                {
                    "Id": "S12",
                    "Value": " ",
                    "ImagePath": "Assets/inf.dark.png"
                },
                {
                    "Id": "S13",
                    "Value": " ",
                    "ImagePath": "Assets/help.dark.png"
                },
                {
                    "Id": "S14",
                    "Value": " ",
                    "ImagePath": "Assets/coffee.dark.png"
                }
            ]
        },
        {
            "UniqueId": "T-shirt",
            "Value": "T-Shirt",
            "Name": "T-shirt",
            "ImagePath": "Assets/tshirt.dark.png",
            "Cards": [
                {
                    "Id": "t1",
                    "Value": "XS",
                    "ImagePath": ""
                },
                {
                    "Id": "t2",
                    "Value": "S",
                    "ImagePath": ""
                },
                {
                    "Id": "t3",
                    "Value": "M",
                    "ImagePath": ""
                },
                {
                    "Id": "t4",
                    "Value": "L",
                    "ImagePath": ""
                },
                {
                    "Id": "t5",
                    "Value": "XL",
                    "ImagePath": ""
                },
                {
                    "Id": "t6",
                    "Value": "XXL",
                    "ImagePath": ""
                },
                {
                    "Id": "t7",
                    "Value": " ",
                    "ImagePath": "Assets/inf.dark.png"
                },
                {
                    "Id": "t8",
                    "Value": " ",
                    "ImagePath": "Assets/help.dark.png"
                },
                {
                    "Id": "t9",
                    "Value": " ",
                    "ImagePath": "Assets/coffee.dark.png"
                }
            ]
        },
        {
            "UniqueId": "Fibonacci",
            "Value": "Fibo",
            "Name": "Fibonacci",
            "ImagePath": "Assets/fibo.dark.png",
            "Cards": [
                {
                    "Id": "f1",
                    "Value": "0",
                    "ImagePath": ""
                },
                {
                    "Id": "f2",
                    "Value": "1",
                    "ImagePath": ""
                },
                {
                    "Id": "f3",
                    "Value": "2",
                    "ImagePath": ""
                },
                {
                    "Id": "f4",
                    "Value": "3",
                    "ImagePath": ""
                },
                {
                    "Id": "f5",
                    "Value": "5",
                    "ImagePath": ""
                },
                {
                    "Id": "f6",
                    "Value": "8",
                    "ImagePath": ""
                },
                {
                    "Id": "f7",
                    "Value": "12",
                    "ImagePath": ""
                },
                {
                    "Id": "f8",
                    "Value": "21",
                    "ImagePath": ""
                },
                {
                    "Id": "f9",
                    "Value": "34",
                    "ImagePath": ""
                },
                {
                    "Id": "f10",
                    "Value": "55",
                    "ImagePath": ""
                },
                {
                    "Id": "f11",
                    "Value": "89",
                    "ImagePath": ""
                },
                {
                    "Id": "f12",
                    "Value": "144",
                    "ImagePath": ""
                },
                {
                    "Id": "f13",
                    "Value": " ",
                    "ImagePath": "Assets/inf.dark.png"
                },
                {
                    "Id": "f14",
                    "Value": " ",
                    "ImagePath": "Assets/help.dark.png"
                },
                {
                    "Id": "f15",
                    "Value": " ",
                    "ImagePath": "Assets/coffee.dark.png"
                }
            ]
        }
    ]
}
